   17.6049   32.9640
   22.1151   32.9240
   21.9307   32.8481
   21.5961   32.8738
   21.6636   32.6539
   21.8476   32.8110
   21.8480   32.7436
   22.0242   32.6545
   22.0809   32.7986
   21.9514   33.4433
   21.9169   33.0785
   21.7957   32.7215
   21.9145   32.5357
   22.5555   32.8551
   22.4952   32.8520
   21.9216   33.1770
   21.6952   32.9587
   21.6494   32.9606
   21.9229   32.6621
   22.5462   32.5904
   22.7845   32.5017
   22.9574   32.9429
   22.7069   32.6796
   23.0212   32.8311
   22.9373   32.7413
   22.6570   32.8547
   22.5284   32.8253
   22.5794   33.1206
   22.6724   32.7922
   23.1730   32.8035
   24.2395   32.4774
   24.1879   32.6405
   24.6139   32.5793
   24.5574   33.1556
   24.9249   32.6549
   25.3439   32.8257
   25.5907   32.9044
   25.1721   32.7292
   25.3075   32.6824
   25.3022   32.9141
   25.1083   32.6992
   25.1797   32.9044
   25.6645   32.5112
   25.8813   32.6729
   26.8553   32.7027
   27.8606   32.8411
   28.2383   32.9667
   29.1857   33.0887
   29.7270   32.8892
   29.7230   32.7971
   29.7625   32.6019
   29.8024   33.1976
   29.8982   32.5394
   30.0878   33.2635
   30.6756   32.8335
   30.6733   33.0446
   30.6604   32.6398
   30.5245   32.8713
   30.2764   32.7383
   30.0827   32.9543
   30.2207   32.6268
   29.8076   32.8561
   29.3577   32.6519
   29.0295   32.8042
   28.6095   32.5572
   28.3077   32.9723
   28.1779   32.9527
   27.8508   32.6604
   27.5346   32.4582
   26.9403   33.0512
   27.2103   32.5273
   26.8161   32.6705
   27.0682   32.6527
   27.0228   32.7683
   27.1822   32.6129
   27.3619   32.7835
   26.9538   32.6784
   26.8877   32.9672
   27.2248   32.8763
   27.6330   33.1097
   28.0990   32.8560
   27.5317   32.9246
   27.0964   32.6077
   27.0569   32.6465
   26.9684   32.7102
   26.9327   32.8277
   26.9298   32.7484
   26.9609   32.8472
   27.1715   33.0487
   27.0168   32.6545
   27.3313   32.9059
   27.0198   32.8710
   26.9090   32.4757
   26.9879   32.7382
   27.0956   32.6453
   27.0921   32.9395
   26.9221   32.6881
   26.7327   32.8298
   26.5189   32.5996
   26.5481   32.8323
   26.4138   32.4054
   26.3731   32.9658
   26.3018   32.8416
   26.2341   32.9551
   26.1311   32.3862
   26.0957   32.7741
   26.3280   32.8172
   26.0725   33.1757
   25.9726   32.7864
   26.0872   32.8658
   26.1885   32.4595
   26.3858   32.8553
   26.5295   32.7408
   26.4552   32.9181
   26.0765   32.7842
   26.3331   32.9477
   26.6802   32.6115
   26.4781   32.8594
   26.6740   32.7246
   26.4622   33.1253
   26.5095   32.7655
   26.3649   32.8267
   26.4432   32.8748
   26.3430   32.7959
   26.3683   32.7039
   26.3910   32.7826
   26.8585   32.4295
   27.0667   32.7186
   27.8341   32.6814
   28.1160   33.1568
   28.3734   32.5924
   28.1610   32.7802
   27.7062   32.8353
   27.2083   32.8922
   27.1035   32.5451
   26.6799   32.9070
   26.5048   32.8181
   26.5452   33.1757
   26.6046   32.9654
   27.0754   32.9131
   27.2008   32.6970
   27.1791   33.0442
   27.3087   32.7326
   27.3701   32.8017
   27.3999   32.6994
   27.1266   32.9225
   27.2898   32.8083
       Inf   32.8295
       Inf   32.5828
       Inf   32.6597
       Inf   32.5688
       Inf   32.9528
       Inf   32.6179
       Inf   32.9625
       Inf   32.5273
       Inf   32.9102
       Inf   32.5169
       Inf   32.7060
       Inf   32.4820
       Inf   33.2182
   19.0405   32.7009
   28.3448   32.9374
   28.6048   32.5881
   28.6540   32.7938
   28.5045   32.6577
   28.5446   32.8616
   28.8062   32.6496
   29.1623   32.7879
   29.4602   32.6113
   30.1322   32.9202
   31.1283   32.5280
   31.3745   32.9296
   31.0297   32.6416
   30.7369   33.1036
