   20.5730   16.3789
   20.5525   16.4876
   20.6078   16.3963
   20.8588   16.4215
   20.5723   16.3943
   21.2778   16.3314
   20.6075   16.3964
   21.2771   16.4630
   21.2779   16.3729
   21.2065   16.3596
   21.2400   16.4484
   21.1959   16.4968
   20.5328   16.3470
   20.5521   16.2730
   20.4430   16.3399
   20.4947   16.2393
   20.4864   16.2794
   20.8448   16.2304
   20.8295   16.6327
   20.8194   16.5113
   20.8231   16.4192
   20.3820   16.3286
   20.7968   16.2725
   20.9653   16.3325
   20.8810   16.4219
   20.7737   16.4589
   20.7588   16.2953
   20.2898   16.2793
   20.2305   16.2535
   20.2671   16.2694
   20.2494   16.2550
   19.8410   16.3306
   20.2077   16.3329
   20.2622   16.4153
   20.2737   16.3261
   20.2665   16.2938
   19.8921   16.3583
   21.0574   16.3729
   19.5036   16.5078
   21.7386   16.3409
   21.6727   16.5189
   21.6140   18.4052
   21.7254   17.2444
   21.5402   16.3688
   21.6709   16.4864
   19.2596   16.7019
   17.8573   16.5176
   22.1063   16.4973
   22.0280   19.3728
   22.0857   17.4955
   21.7686   18.2995
   21.9281   17.5471
   22.4361   20.9579
   22.5515   19.7515
   22.3224   19.7224
   21.8962   20.2316
   21.5314   20.1829
   21.6123   20.5338
   21.7972   20.3592
   21.8363   20.3207
   21.5551   20.3514
   21.5103   20.5158
   21.7280   20.4435
   21.3600   20.4028
   21.2915   20.3703
   20.5463   20.8012
   20.7970   20.3381
   20.6036   20.2320
   20.6669   20.4418
   20.7143   20.4008
   20.7066   20.4805
   20.6938   20.3695
   20.0987   20.0846
   20.6813   20.4482
   20.1533   20.6059
   20.1259   20.1089
   20.7137   20.2904
   20.8310   20.6251
   20.1511   20.0834
   20.2209   20.1881
   20.2586   20.4267
   20.2674   20.2936
   20.2962   19.9974
   20.2968   20.1413
   20.3258   19.9343
   20.3788   20.2557
   20.3662   20.2857
   20.4077   20.2107
   20.3896   19.8388
   20.4276   20.2604
   20.4296   20.2272
   21.0846   20.1816
   20.5111   20.1578
   20.5092   20.0451
   20.4593   20.1318
   20.4574   20.4310
   20.4819   20.1048
   21.1394   20.2631
   20.4039   20.3767
   20.4626   20.3791
   20.4533   20.5403
