   27.3963   15.4885
   27.5273   14.6591
   27.3754   14.2331
   27.8318   14.7047
   27.6524   14.3782
   27.8197   14.1953
   28.0027   14.2309
   27.9661   14.2498
   27.7906   14.6525
   28.0152   14.7790
   27.6993   14.2653
   28.5115   14.8419
   27.9981   16.5993
   27.6278   14.8181
   27.8459   14.6447
   27.7857   14.5639
   27.6788   14.2752
   27.8997   14.7009
   27.8137   15.7752
   28.2562   14.6241
   28.3206   16.2103
   27.9745   14.5865
   27.8627   14.7472
   27.8229   14.7298
   28.5487   15.3747
   27.7893   15.8625
   27.8427   14.5871
   28.1067   16.4637
   27.7574   16.7890
   27.5320   16.3710
   27.7419   14.4192
   27.5128   14.8790
   27.8262   14.9260
   27.6121   14.3961
   27.6438   15.3541
   27.6932   15.5958
   27.5833   14.7871
   27.5120   14.6581
   27.8386   15.2939
   27.4355   15.4018
   27.4587   14.6719
   27.6233   14.6042
   27.4361   14.5962
   27.6723   14.6639
   27.2934   14.6429
   23.2601   14.7897
   22.1745   14.6869
   27.2676   14.7098
   27.1832   14.6502
   27.2404   14.6598
   27.6802   14.8067
   27.1300   14.8291
   27.1923   14.5127
   27.3088   15.2539
   27.2263   14.4057
   27.0020   14.8931
   27.1276   14.3094
   27.4905   14.2571
   27.2261   14.2188
   27.0341   14.2915
   27.3587   14.3460
   27.1131   14.2240
   27.0432   14.4130
   27.0687   14.5803
   27.3257   14.8957
   26.8453   14.2775
   27.0612   14.1561
   26.8380   14.1277
   27.2105   14.2784
   26.9866   14.2873
   26.9014   14.1555
   27.4425   14.1910
   27.2380   14.2959
   27.3257   14.2441
   27.2001   14.3205
   27.1834   14.3953
   27.3944   14.1930
   27.1812   14.2631
   27.6744   14.2061
   27.3215   14.3308
   27.3953   14.2017
   27.3516   14.0581
   27.2809   14.1435
   27.3759   14.2166
   27.0802   14.2363
   27.4823   14.3332
   27.2874   14.3702
   27.3907   14.2917
   27.3462   14.3735
   27.2960   14.3341
   27.3216   14.1701
   27.4406   14.2004
   27.1634   14.3101
   27.3562   14.2856
   27.3475   14.2778
   27.2815   14.2863
   27.5170   14.1757
   27.1563   14.2533
   27.2408   14.3534
   27.0443   14.3014
   27.1227   14.3888
