   17.5911   41.7242
   16.3499   40.0836
   16.7208   38.4382
   16.6680   38.4618
   16.3269   38.3792
   16.6316   38.1855
   16.7707   38.2800
   15.9844   38.4243
   15.8431   38.3846
   16.2457   38.5617
   15.6660   38.1462
   15.7159   38.3824
   15.8600   38.1908
   15.6202   38.5196
   15.6583   38.2823
   16.3659   38.1557
   15.7050   38.2924
   15.6769   38.3226
   15.6979   38.5700
   15.6856   38.4692
   16.3633   38.2930
   17.1257   38.0548
   17.4113   37.7691
   17.5419   37.7579
   16.8273   37.7825
   17.0631   38.0119
   17.6967   37.7831
   17.0809   37.8563
   17.2165   37.9479
   17.7325   38.0813
   17.0347   38.0441
   16.7653   37.9806
   17.4147   37.9167
   16.8987   38.4077
   17.1453   38.0269
   17.2542   37.7512
   16.5331   37.9148
   16.4894   38.1284
   16.8728   37.8290
   16.7484   37.9559
   16.8856   38.1225
   17.1652   37.8750
   17.3001   37.9269
   16.8529   38.3887
   17.3459   37.9359
   17.3048   38.1644
   17.7244   39.9266
   16.9321   38.3355
   17.0332   38.0691
   17.1017   38.0465
