   33.5489   32.7267
   33.5317   32.7712
   33.5107   32.8592
   33.4073   32.9765
   32.6767   32.5752
   32.4728   32.8996
   32.3928   33.1547
   32.0760   33.0655
   32.0420   32.9792
   31.8492   32.8926
   31.9926   32.8883
   31.6838   32.9170
   30.6134   32.8241
   30.7450   32.8316
   30.4702   32.8509
   30.1970   32.8067
   28.7602   32.8837
   28.1153   32.8509
   26.8167   32.8354
   24.2162   32.7621
   23.1382   32.8316
   22.1308   32.7938
   21.6755   32.8166
   21.8279   32.6209
   21.4034   32.7269
   21.2306   32.8899
   21.2009   32.6335
   21.3040   32.4327
   21.4215   32.5332
   21.2820   32.7260
   21.2614   32.6377
   20.8898   32.8272
   20.4344   32.9028
   20.3156   32.6817
   20.4013   32.8030
   20.6217   32.9831
   20.8435   33.0837
   20.9365   32.7192
   21.2587   32.8057
   21.2177   32.5642
   21.2940   32.8608
   21.1094   32.8980
   20.5272   32.9500
   20.5523   32.9858
   20.2926   33.1664
   20.5025   32.5844
   20.4433   32.8753
   20.3059   32.8537
   20.2882   32.5312
   20.1337   32.6485
   19.8006   32.8836
   19.6449   32.7613
   19.8540   32.7660
   20.0887   32.7936
   20.0097   32.8963
   19.6103   32.9170
   19.7096   32.6768
   20.1686   32.8787
   19.9884   32.6583
   19.5930   32.6077
   19.7830   32.9671
   20.1453   32.5963
   20.3349   32.9071
   20.1675   32.8608
   20.1494   32.7876
   20.0081   32.8016
   20.0811   32.8253
   19.8589   32.8030
   19.9632   32.6924
   20.1003   32.9554
   20.2612   32.8455
   20.5703   32.7655
   20.5079   32.4339
   20.7684   32.6797
   20.7501   32.6496
   20.9816   32.5939
   20.4793   32.8957
   20.4539   32.9473
   20.6221   33.1129
   20.3901   32.5072
   20.5881   32.7196
   20.3665   32.8282
   20.1424   32.5998
   19.9712   32.7687
   19.6772   32.8554
   19.1393   32.7973
   19.4408   32.6149
   19.2689   32.7278
   19.4135   32.5637
   19.4499   32.5887
   19.7630   32.7605
   19.8838   32.6937
   20.0982   32.7439
   20.2826   32.6047
   20.0279   32.9601
   19.6677   32.8626
   19.7366   32.7264
   19.8774   33.0882
   20.0546   32.9096
   20.1124   32.5453
   20.0023   32.6298
   19.7795   32.6517
   19.8091   32.7420
   20.6521   32.8778
   21.5500   33.1763
   22.1043   33.0658
   22.2157   33.1476
   22.5684   32.7156
   23.5182   32.6292
   24.3355   33.0435
   25.2018   32.8712
   27.2648   32.9140
   32.5252   32.5594
   33.2921   32.8557
   33.0656   32.6587
   33.2481   32.7868
   33.2322   32.9943
   33.2038   32.7986
   33.1572   32.7755
   33.1246   32.9049
   33.2972   32.7212
   33.5258   32.7761
   33.5141   32.6123
   33.4920   32.7462
